…
trial = function(mu) {
  
  tibble_df = 
    tibble(x = rnorm(n = 30, mean = mu, sd = 5))
  t.test(tibble_df) %>% 
    broom::tidy() %>% 
    select(estimate, p.value)
}

expand.grid(mu = 0, run = 1:5000) %>% 
  mutate(value = map(mu, trial)) %>%
  unnest(value)
```

    ## # A tibble: 5,000 × 4
    ##       mu   run estimate p.value
    ##    <dbl> <int>    <dbl>   <dbl>
    ##  1     0     1   0.855   0.291 
    ##  2     0     2   1.46    0.0959
    ##  3     0     3   0.0355  0.969 
    ##  4     0     4   1.33    0.132 
    ##  5     0     5   1.46    0.149 
    ##  6     0     6  -0.861   0.361 
    ##  7     0     7  -1.07    0.185 
    ##  8     0     8  -0.521   0.604 
    ##  9     0     9  -0.106   0.912 
    ## 10     0    10   0.0114  0.990 
    ## # … with 4,990 more rows
